{
  "schemaVersion": 1,
  "id": "${mod_id}",
  "version": "${mod_version}",

  "name": "${mod_name}",
  "description": "${mod_description}",
  "authors": [
    "${author}"
  ],
  "contact": {
    "homepage": "https://modrinth.com/mod/${archives_base_name}",
    "sources": "https://gitlab.com/${author}/${mod_id}",
    "issues": "https://gitlab.com/${author}/${mod_id}/-/issues"
  },

  "custom": {
    "modmenu": {
      "links": {
        "modmenu.discord": "https://discord.gg/xABmPngXAH"
      }
    },
    "sss_translate": {
      "crowdin_project_name": "${archives_base_name}",
      "minecraft_project_name": "${mod_id}"
    }
  },

  "license": "MIT",
  "icon": "assets/${mod_id}/icon.png",

  "environment": "*",
  "entrypoints": {
    "main": [
      "${maven_group}.${mod_id}.Init"
    ],
    "modmenu": [
      "${maven_group}.${mod_id}.ModMenuInit"
    ]
  },
  "mixins": [
    "${mod_id}.mixins.json"
  ],

  "depends": {
    "fabricloader": ">=${min_fabricloader_version}",
    "fabric": ">=${min_fabric_version}",
    "minecraft": ">=${min_minecraft_version} <=${minecraft_version}"
  },
  "suggests": {
    "modmenu": ">=${modmenu_version}",
    "cloth-config2": ">=${cloth_config_version}",
    "sss_translate": "*"
  }
}
